2020-06-17 14:12:29,795 [Thread-54   ] [INFO ]  127.0.0.1 - - [17/Jun/2020 14:12:29] "[37mGET /get?name=04289 HTTP/1.1[0m" 200 -
2020-06-17 14:12:29,795 [Thread-55   ] [INFO ]  127.0.0.1 - - [17/Jun/2020 14:12:29] "[37mGET /get?name=04321 HTTP/1.1[0m" 200 -
2020-06-17 14:12:29,801 [Thread-56   ] [INFO ]  127.0.0.1 - - [17/Jun/2020 14:12:29] "[37mGET /get?name=04274 HTTP/1.1[0m" 200 -
2020-06-17 14:12:29,807 [Thread-57   ] [INFO ]  127.0.0.1 - - [17/Jun/2020 14:12:29] "[37mGET /get?name=04293 HTTP/1.1[0m" 200 -
2020-06-17 14:12:29,809 [Thread-58   ] [INFO ]  127.0.0.1 - - [17/Jun/2020 14:12:29] "[37mGET /get?name=04274 HTTP/1.1[0m" 200 -
2020-06-17 14:12:29,810 [Thread-59   ] [INFO ]  127.0.0.1 - - [17/Jun/2020 14:12:29] "[37mGET /get?name=04281 HTTP/1.1[0m" 200 -
2020-06-17 14:12:29,817 [Thread-60   ] [INFO ]  127.0.0.1 - - [17/Jun/2020 14:12:29] "[37mGET /get?name=04289 HTTP/1.1[0m" 200 -
2020-06-17 14:12:29,819 [Thread-61   ] [INFO ]  127.0.0.1 - - [17/Jun/2020 14:12:29] "[37mGET /get?name=04293 HTTP/1.1[0m" 200 -
2020-06-17 14:12:29,826 [Thread-62   ] [INFO ]  127.0.0.1 - - [17/Jun/2020 14:12:29] "[37mGET /get?name=04281 HTTP/1.1[0m" 200 -
2020-06-17 14:12:29,827 [Thread-63   ] [INFO ]  127.0.0.1 - - [17/Jun/2020 14:12:29] "[37mGET /get?name=04289 HTTP/1.1[0m" 200 -
2020-06-17 14:12:29,830 [Thread-65   ] [INFO ]  127.0.0.1 - - [17/Jun/2020 14:12:29] "[37mGET /get?name=04274 HTTP/1.1[0m" 200 -
2020-06-17 14:12:29,831 [Thread-64   ] [INFO ]  127.0.0.1 - - [17/Jun/2020 14:12:29] "[37mGET /get?name=04321 HTTP/1.1[0m" 200 -
2020-06-17 14:12:29,840 [Thread-68   ] [INFO ]  127.0.0.1 - - [17/Jun/2020 14:12:29] "[37mGET /get?name=04293 HTTP/1.1[0m" 200 -
2020-06-17 14:12:29,841 [Thread-67   ] [INFO ]  127.0.0.1 - - [17/Jun/2020 14:12:29] "[37mGET /get?name=04274 HTTP/1.1[0m" 200 -
2020-06-17 14:12:29,842 [Thread-66   ] [INFO ]  127.0.0.1 - - [17/Jun/2020 14:12:29] "[37mGET /get?name=04321 HTTP/1.1[0m" 200 -
2020-06-17 14:12:29,842 [Thread-69   ] [INFO ]  127.0.0.1 - - [17/Jun/2020 14:12:29] "[37mGET /get?name=04281 HTTP/1.1[0m" 200 -
2020-06-17 14:12:29,853 [Thread-70   ] [INFO ]  127.0.0.1 - - [17/Jun/2020 14:12:29] "[37mGET /get?name=04293 HTTP/1.1[0m" 200 -
2020-06-17 14:12:29,856 [Thread-71   ] [INFO ]  127.0.0.1 - - [17/Jun/2020 14:12:29] "[37mGET /get?name=04281 HTTP/1.1[0m" 200 -
2020-06-17 14:12:29,863 [Thread-73   ] [INFO ]  127.0.0.1 - - [17/Jun/2020 14:12:29] "[37mGET /get?name=04321 HTTP/1.1[0m" 200 -
2020-06-17 14:12:29,864 [Thread-72   ] [INFO ]  127.0.0.1 - - [17/Jun/2020 14:12:29] "[37mGET /get?name=04289 HTTP/1.1[0m" 200 -
2020-06-17 14:12:29,866 [Thread-74   ] [INFO ]  127.0.0.1 - - [17/Jun/2020 14:12:29] "[37mGET /get?name=04274 HTTP/1.1[0m" 200 -
2020-06-17 14:12:29,873 [Thread-75   ] [INFO ]  127.0.0.1 - - [17/Jun/2020 14:12:29] "[37mGET /get?name=04289 HTTP/1.1[0m" 200 -
2020-06-17 14:12:29,876 [Thread-76   ] [INFO ]  127.0.0.1 - - [17/Jun/2020 14:12:29] "[37mGET /get?name=04321 HTTP/1.1[0m" 200 -
2020-06-17 14:12:29,876 [Thread-77   ] [INFO ]  127.0.0.1 - - [17/Jun/2020 14:12:29] "[37mGET /get?name=04274 HTTP/1.1[0m" 200 -
2020-06-17 14:12:29,881 [Thread-78   ] [INFO ]  127.0.0.1 - - [17/Jun/2020 14:12:29] "[37mGET /get?name=04293 HTTP/1.1[0m" 200 -
2020-06-17 14:12:29,885 [Thread-79   ] [INFO ]  127.0.0.1 - - [17/Jun/2020 14:12:29] "[37mGET /get?name=04293 HTTP/1.1[0m" 200 -
2020-06-17 14:14:22,370 [Thread-80   ] [INFO ]  127.0.0.1 - - [17/Jun/2020 14:14:22] "[37mGET /get?name=04321 HTTP/1.1[0m" 200 -
2020-06-17 14:14:22,376 [Thread-81   ] [INFO ]  127.0.0.1 - - [17/Jun/2020 14:14:22] "[37mGET /get?name=04321 HTTP/1.1[0m" 200 -
2020-06-17 14:14:22,380 [Thread-82   ] [INFO ]  127.0.0.1 - - [17/Jun/2020 14:14:22] "[37mGET /get?name=04321 HTTP/1.1[0m" 200 -
2020-06-17 14:14:25,033 [Thread-83   ] [INFO ]  127.0.0.1 - - [17/Jun/2020 14:14:25] "[37mGET /get?name=04321 HTTP/1.1[0m" 200 -
2020-06-17 14:14:25,039 [Thread-84   ] [INFO ]  127.0.0.1 - - [17/Jun/2020 14:14:25] "[37mGET /get?name=04321 HTTP/1.1[0m" 200 -
2020-06-17 14:35:44,967 [Thread-85   ] [INFO ]  Length data: 146432
2020-06-17 14:35:44,968 [Thread-85   ] [INFO ]  length data after validate: 147456
2020-06-17 14:35:46,723 [Thread-85   ] [INFO ]  Modify file 04281 successfull
2020-06-17 14:35:46,724 [Thread-85   ] [INFO ]  Length data: 98304
2020-06-17 14:35:46,725 [Thread-85   ] [INFO ]  length data after validate: 98304
2020-06-17 14:35:47,519 [Thread-85   ] [INFO ]  Modify file 04289 successfull
2020-06-17 14:35:47,520 [Thread-85   ] [INFO ]  Length data: 185344
2020-06-17 14:35:47,521 [Thread-85   ] [INFO ]  length data after validate: 186368
2020-06-17 14:35:48,464 [Thread-85   ] [INFO ]  Modify file 04321 successfull
2020-06-17 14:35:48,465 [Thread-85   ] [INFO ]  Length data: 106496
2020-06-17 14:35:48,466 [Thread-85   ] [INFO ]  length data after validate: 106496
2020-06-17 14:35:49,284 [Thread-85   ] [INFO ]  Modify file 04274 successfull
2020-06-17 14:35:49,285 [Thread-85   ] [INFO ]  Length data: 110592
2020-06-17 14:35:49,285 [Thread-85   ] [INFO ]  length data after validate: 110592
2020-06-17 14:35:49,843 [Thread-85   ] [INFO ]  Modify file 04293 successfull
2020-06-17 14:35:49,852 [Thread-85   ] [INFO ]  127.0.0.1 - - [17/Jun/2020 14:35:49] "[37mPOST / HTTP/1.1[0m" 200 -
2020-06-17 14:35:49,961 [Thread-86   ] [INFO ]  127.0.0.1 - - [17/Jun/2020 14:35:49] "[37mGET /get?name=04281 HTTP/1.1[0m" 200 -
2020-06-17 14:35:49,964 [Thread-87   ] [INFO ]  127.0.0.1 - - [17/Jun/2020 14:35:49] "[37mGET /get?name=04289 HTTP/1.1[0m" 200 -
2020-06-17 14:35:49,965 [Thread-88   ] [INFO ]  127.0.0.1 - - [17/Jun/2020 14:35:49] "[37mGET /get?name=04321 HTTP/1.1[0m" 200 -
2020-06-17 14:35:49,968 [Thread-89   ] [INFO ]  127.0.0.1 - - [17/Jun/2020 14:35:49] "[37mGET /get?name=04281 HTTP/1.1[0m" 200 -
2020-06-17 14:35:49,977 [Thread-91   ] [INFO ]  127.0.0.1 - - [17/Jun/2020 14:35:49] "[37mGET /get?name=04289 HTTP/1.1[0m" 200 -
2020-06-17 14:35:49,979 [Thread-90   ] [INFO ]  127.0.0.1 - - [17/Jun/2020 14:35:49] "[37mGET /get?name=04274 HTTP/1.1[0m" 200 -
2020-06-17 14:35:49,980 [Thread-92   ] [INFO ]  127.0.0.1 - - [17/Jun/2020 14:35:49] "[37mGET /get?name=04321 HTTP/1.1[0m" 200 -
2020-06-17 14:35:49,987 [Thread-93   ] [INFO ]  127.0.0.1 - - [17/Jun/2020 14:35:49] "[37mGET /get?name=04274 HTTP/1.1[0m" 200 -
2020-06-17 14:35:49,988 [Thread-94   ] [INFO ]  127.0.0.1 - - [17/Jun/2020 14:35:49] "[37mGET /get?name=04293 HTTP/1.1[0m" 200 -
2020-06-17 14:35:49,990 [Thread-95   ] [INFO ]  127.0.0.1 - - [17/Jun/2020 14:35:49] "[37mGET /get?name=04281 HTTP/1.1[0m" 200 -
2020-06-17 14:35:49,993 [Thread-96   ] [INFO ]  127.0.0.1 - - [17/Jun/2020 14:35:49] "[37mGET /get?name=04289 HTTP/1.1[0m" 200 -
2020-06-17 14:35:50,001 [Thread-97   ] [INFO ]  127.0.0.1 - - [17/Jun/2020 14:35:50] "[37mGET /get?name=04293 HTTP/1.1[0m" 200 -
2020-06-17 14:35:50,006 [Thread-98   ] [INFO ]  127.0.0.1 - - [17/Jun/2020 14:35:50] "[37mGET /get?name=04281 HTTP/1.1[0m" 200 -
2020-06-17 14:35:50,007 [Thread-99   ] [INFO ]  127.0.0.1 - - [17/Jun/2020 14:35:50] "[37mGET /get?name=04289 HTTP/1.1[0m" 200 -
2020-06-17 14:35:50,008 [Thread-101  ] [INFO ]  127.0.0.1 - - [17/Jun/2020 14:35:50] "[37mGET /get?name=04274 HTTP/1.1[0m" 200 -
2020-06-17 14:35:50,008 [Thread-100  ] [INFO ]  127.0.0.1 - - [17/Jun/2020 14:35:50] "[37mGET /get?name=04321 HTTP/1.1[0m" 200 -
2020-06-17 14:35:50,015 [Thread-102  ] [INFO ]  127.0.0.1 - - [17/Jun/2020 14:35:50] "[37mGET /get?name=04321 HTTP/1.1[0m" 200 -
2020-06-17 14:35:50,019 [Thread-103  ] [INFO ]  127.0.0.1 - - [17/Jun/2020 14:35:50] "[37mGET /get?name=04274 HTTP/1.1[0m" 200 -
2020-06-17 14:35:50,021 [Thread-104  ] [INFO ]  127.0.0.1 - - [17/Jun/2020 14:35:50] "[37mGET /get?name=04293 HTTP/1.1[0m" 200 -
2020-06-17 14:35:50,023 [Thread-105  ] [INFO ]  127.0.0.1 - - [17/Jun/2020 14:35:50] "[37mGET /get?name=04281 HTTP/1.1[0m" 200 -
2020-06-17 14:35:50,024 [Thread-106  ] [INFO ]  127.0.0.1 - - [17/Jun/2020 14:35:50] "[37mGET /get?name=04289 HTTP/1.1[0m" 200 -
2020-06-17 14:35:50,028 [Thread-107  ] [INFO ]  127.0.0.1 - - [17/Jun/2020 14:35:50] "[37mGET /get?name=04293 HTTP/1.1[0m" 200 -
2020-06-17 14:35:50,032 [Thread-108  ] [INFO ]  127.0.0.1 - - [17/Jun/2020 14:35:50] "[37mGET /get?name=04281 HTTP/1.1[0m" 200 -
2020-06-17 14:35:50,034 [Thread-110  ] [INFO ]  127.0.0.1 - - [17/Jun/2020 14:35:50] "[37mGET /get?name=04321 HTTP/1.1[0m" 200 -
2020-06-17 14:35:50,035 [Thread-109  ] [INFO ]  127.0.0.1 - - [17/Jun/2020 14:35:50] "[37mGET /get?name=04289 HTTP/1.1[0m" 200 -
2020-06-17 14:35:50,035 [Thread-111  ] [INFO ]  127.0.0.1 - - [17/Jun/2020 14:35:50] "[37mGET /get?name=04274 HTTP/1.1[0m" 200 -
2020-06-17 14:35:50,040 [Thread-112  ] [INFO ]  127.0.0.1 - - [17/Jun/2020 14:35:50] "[37mGET /get?name=04293 HTTP/1.1[0m" 200 -
2020-06-17 14:35:50,043 [Thread-113  ] [INFO ]  127.0.0.1 - - [17/Jun/2020 14:35:50] "[37mGET /get?name=04274 HTTP/1.1[0m" 200 -
2020-06-17 14:35:50,043 [Thread-114  ] [INFO ]  127.0.0.1 - - [17/Jun/2020 14:35:50] "[37mGET /get?name=04321 HTTP/1.1[0m" 200 -
2020-06-17 14:35:50,048 [Thread-115  ] [INFO ]  127.0.0.1 - - [17/Jun/2020 14:35:50] "[37mGET /get?name=04293 HTTP/1.1[0m" 200 -
